properties{
  x = 0,
  y = 0,
  width = 320,
  height = 240,
  min_layer = 0,
  max_layer = 2,
  tileset = "dungeon_brick_gray_1",
  music = "same",
}

tile{
  layer = 1,
  x = 184,
  y = 152,
  width = 104,
  height = 56,
  pattern = "hole",
}

tile{
  layer = 1,
  x = 184,
  y = 32,
  width = 64,
  height = 56,
  pattern = "hole",
}

tile{
  layer = 1,
  x = 72,
  y = 72,
  width = 176,
  height = 96,
  pattern = "hole",
}

tile{
  layer = 1,
  x = 72,
  y = 168,
  width = 64,
  height = 40,
  pattern = "hole",
}

tile{
  layer = 1,
  x = 72,
  y = 192,
  width = 16,
  height = 16,
  pattern = "wall_hole.corner.3",
}

tile{
  layer = 1,
  x = 88,
  y = 192,
  width = 48,
  height = 16,
  pattern = "wall_hole.2",
}

tile{
  layer = 1,
  x = 272,
  y = 192,
  width = 16,
  height = 16,
  pattern = "wall_hole.corner.4",
}

tile{
  layer = 1,
  x = 248,
  y = 152,
  width = 24,
  height = 16,
  pattern = "wall_hole.1",
}

tile{
  layer = 1,
  x = 272,
  y = 152,
  width = 16,
  height = 16,
  pattern = "wall_hole.corner.2",
}

tile{
  layer = 1,
  x = 232,
  y = 152,
  width = 16,
  height = 16,
  pattern = "wall_hole.corner_reverse.2",
}

tile{
  layer = 1,
  x = 272,
  y = 168,
  width = 16,
  height = 24,
  pattern = "wall_hole.4",
}

tile{
  layer = 1,
  x = 32,
  y = 32,
  width = 104,
  height = 56,
  pattern = "hole",
}

tile{
  layer = 1,
  x = 32,
  y = 48,
  width = 16,
  height = 24,
  pattern = "wall_hole.3",
}

tile{
  layer = 1,
  x = 232,
  y = 32,
  width = 16,
  height = 16,
  pattern = "wall_hole.corner.2",
}

tile{
  layer = 1,
  x = 184,
  y = 32,
  width = 48,
  height = 16,
  pattern = "wall_hole.1",
}

tile{
  layer = 1,
  x = 32,
  y = 32,
  width = 16,
  height = 16,
  pattern = "wall_hole.corner.1",
}

tile{
  layer = 1,
  x = 32,
  y = 72,
  width = 16,
  height = 16,
  pattern = "wall_hole.corner.3",
}

tile{
  layer = 1,
  x = 72,
  y = 72,
  width = 16,
  height = 16,
  pattern = "wall_hole.corner_reverse.3",
}

tile{
  layer = 1,
  x = 48,
  y = 72,
  width = 24,
  height = 16,
  pattern = "wall_hole.2",
}

tile{
  layer = 1,
  x = 72,
  y = 88,
  width = 16,
  height = 104,
  pattern = "wall_hole.3",
}

tile{
  layer = 1,
  x = 48,
  y = 32,
  width = 88,
  height = 16,
  pattern = "wall_hole.1",
}

tile{
  layer = 1,
  x = 64,
  y = 96,
  width = 8,
  height = 8,
  pattern = "floor_border.2",
}

tile{
  layer = 1,
  x = 64,
  y = 136,
  width = 8,
  height = 8,
  pattern = "floor_border.2",
}

tile{
  layer = 1,
  x = 248,
  y = 96,
  width = 8,
  height = 8,
  pattern = "floor_border.2",
}

tile{
  layer = 1,
  x = 248,
  y = 136,
  width = 8,
  height = 8,
  pattern = "floor_border.2",
}

tile{
  layer = 1,
  x = 88,
  y = 16,
  width = 32,
  height = 16,
  pattern = "wall_torch.1",
}

tile{
  layer = 1,
  x = 200,
  y = 16,
  width = 32,
  height = 16,
  pattern = "wall_torch.1",
}

tile{
  layer = 1,
  x = 88,
  y = 208,
  width = 32,
  height = 16,
  pattern = "wall_torch.2",
}

tile{
  layer = 1,
  x = 200,
  y = 208,
  width = 32,
  height = 16,
  pattern = "wall_torch.2",
}

tile{
  layer = 1,
  x = 184,
  y = 192,
  width = 88,
  height = 16,
  pattern = "wall_hole.2",
}

tile{
  layer = 1,
  x = 232,
  y = 48,
  width = 16,
  height = 104,
  pattern = "wall_hole.4",
}

tile{
  layer = 1,
  x = 72,
  y = 104,
  width = 176,
  height = 32,
  pattern = "floor_grid",
}

tile{
  layer = 1,
  x = 184,
  y = 160,
  width = 8,
  height = 8,
  pattern = "hole.corner_reverse.3",
}

tile{
  layer = 1,
  x = 128,
  y = 160,
  width = 8,
  height = 8,
  pattern = "hole.corner_reverse.4",
}

tile{
  layer = 1,
  x = 184,
  y = 72,
  width = 8,
  height = 8,
  pattern = "hole.corner_reverse.1",
}

tile{
  layer = 1,
  x = 128,
  y = 72,
  width = 8,
  height = 8,
  pattern = "hole.corner_reverse.2",
}

tile{
  layer = 1,
  x = 184,
  y = 32,
  width = 8,
  height = 40,
  pattern = "hole.3",
}

tile{
  layer = 1,
  x = 184,
  y = 168,
  width = 8,
  height = 40,
  pattern = "hole.3",
}

tile{
  layer = 1,
  x = 128,
  y = 32,
  width = 8,
  height = 40,
  pattern = "hole.4",
}

tile{
  layer = 1,
  x = 128,
  y = 168,
  width = 8,
  height = 40,
  pattern = "hole.4",
}

tile{
  layer = 1,
  x = 136,
  y = 160,
  width = 48,
  height = 8,
  pattern = "hole.2",
}

tile{
  layer = 1,
  x = 136,
  y = 72,
  width = 48,
  height = 8,
  pattern = "hole.1",
}

block{
  layer = 1,
  x = 48,
  y = 197,
  direction = -1,
  sprite = "entities/block",
  pushable = true,
  pullable = false,
  max_moves = 1,
}

block{
  layer = 1,
  x = 176,
  y = 197,
  direction = -1,
  sprite = "entities/block",
  pushable = true,
  pullable = false,
  max_moves = 1,
}

dynamic_tile{
  layer = 1,
  x = 136,
  y = 40,
  width = 16,
  height = 16,
  name = "treasure_obstacle_chest",
  pattern = "placeholder_treasure_obstacle",
  tileset = "placeholders",
  enabled_at_start = true,
}

dynamic_tile{
  layer = 1,
  x = 32,
  y = 104,
  width = 32,
  height = 32,
  name = "enemy_1",
  pattern = "placeholder_enemy",
  tileset = "placeholders",
  enabled_at_start = true,
}

dynamic_tile{
  layer = 1,
  x = 256,
  y = 104,
  width = 32,
  height = 32,
  name = "enemy_2",
  pattern = "placeholder_enemy",
  tileset = "placeholders",
  enabled_at_start = true,
}

dynamic_tile{
  layer = 1,
  x = 264,
  y = 40,
  width = 16,
  height = 16,
  name = "treasure_open_chest",
  pattern = "placeholder_treasure_block",
  tileset = "placeholders",
  enabled_at_start = true,
}

